\relax 
\@writefile{toc}{\contentsline {section}{\numberline {1}Descriptive statistics}{1}}
\@writefile{toc}{\contentsline {subsection}{\numberline {1.1}Descriptive statistics for a single variable}{1}}
\citation{Grafen:2002vr}
\@writefile{toc}{\contentsline {subsection}{\numberline {1.2}Descriptive statistics for two variables}{2}}
\citation{Twomey:2008en}
\@writefile{toc}{\contentsline {subsection}{\numberline {1.3}Multivariate descriptive statistics}{4}}
\@writefile{toc}{\contentsline {section}{\numberline {2}Probability distributions}{5}}
\@writefile{toc}{\contentsline {subsection}{\numberline {2.1}Normal distribution}{6}}
\@writefile{toc}{\contentsline {subsection}{\numberline {2.2}Exponential distribution}{6}}
\@writefile{toc}{\contentsline {subsection}{\numberline {2.3}Gamma distribution}{6}}
\@writefile{toc}{\contentsline {subsection}{\numberline {2.4}Poisson distribution}{6}}
\@writefile{toc}{\contentsline {subsection}{\numberline {2.5}Binomial distribution}{7}}
\@writefile{toc}{\contentsline {subsection}{\numberline {2.6}Negative binomial distribution}{7}}
\citation{Robinson:2009cw}
\citation{Robinson:2009cw}
\@writefile{toc}{\contentsline {subsection}{\numberline {2.7}$\chi ^2$ distribution}{8}}
\@writefile{toc}{\contentsline {subsection}{\numberline {2.8}$F$ distribution}{8}}
\@writefile{toc}{\contentsline {subsection}{\numberline {2.9}Uniform distribution}{8}}
\@writefile{toc}{\contentsline {subsection}{\numberline {2.10}$t$-distribution}{8}}
\citation{Grafen:2002vr}
\citation{Sokal:1995uz}
\@writefile{toc}{\contentsline {section}{\numberline {3}Laws and Theorems}{9}}
\@writefile{toc}{\contentsline {subsection}{\numberline {3.1}The Central Limit Theorem}{9}}
\citation{Whitlock:2008vp}
\@writefile{toc}{\contentsline {subsection}{\numberline {3.2}Law of large numbers}{10}}
\@writefile{toc}{\contentsline {section}{\numberline {4}Hypothesis testing}{10}}
\@writefile{toc}{\contentsline {subsection}{\numberline {4.1}Relationship to confidence intervals}{10}}
\citation{Grafen:2002vr}
\bibstyle{amnat}
\bibdata{statistics}
\bibcite{Grafen:2002vr}{{1}{2002}{{Grafen and Hails}}{{}}}
\bibcite{Robinson:2009cw}{{2}{2009}{{Robinson et~al.}}{{Robinson, McCarthy, and Smyth}}}
\bibcite{Sokal:1995uz}{{3}{1995}{{Sokal and Rohlf}}{{}}}
\bibcite{Twomey:2008en}{{4}{2008}{{Twomey and Kroll}}{{}}}
\bibcite{Whitlock:2008vp}{{5}{2008}{{Whitlock and Schluter}}{{}}}
\@writefile{toc}{\contentsline {subsection}{\numberline {4.2}General Linear Models}{11}}
\@writefile{toc}{\contentsline {section}{\numberline {5}Multiple independent tests}{11}}
